info face="Cantarell Bold" size=64 bold=1 italic=0 charset="" unicode=0 stretchH=100 smooth=1 aa=1 padding=1,1,1,1 spacing=-2,-2
common lineHeight=81 base=62 scaleW=512 scaleH=512 pages=7 packed=0
page id=0 file="cantarell1.png"
page id=1 file="cantarell2.png"
page id=2 file="cantarell3.png"
page id=3 file="cantarell4.png"
page id=4 file="cantarell5.png"
page id=5 file="cantarell6.png"
page id=6 file="cantarell7.png"
chars count=527
char id=0       x=0    y=0    width=34   height=83   xoffset=2    yoffset=-1   xadvance=32   page=0    chnl=0 
char id=13      x=0    y=0    width=0    height=0    xoffset=-1   yoffset=0    xadvance=0    page=0    chnl=0 
char id=33      x=34   y=0    width=17   height=83   xoffset=1    yoffset=-1   xadvance=15   page=0    chnl=0 
char id=34      x=51   y=0    width=24   height=83   xoffset=0    yoffset=-1   xadvance=22   page=0    chnl=0 
char id=35      x=75   y=0    width=49   height=83   xoffset=0    yoffset=-1   xadvance=47   page=0    chnl=0 
char id=36      x=124  y=0    width=42   height=83   xoffset=5    yoffset=-1   xadvance=40   page=0    chnl=0 
char id=37      x=166  y=0    width=51   height=83   xoffset=-1   yoffset=-1   xadvance=49   page=0    chnl=0 
char id=38      x=217  y=0    width=50   height=83   xoffset=3    yoffset=-1   xadvance=48   page=0    chnl=0 
char id=39      x=267  y=0    width=13   height=83   xoffset=0    yoffset=-1   xadvance=11   page=0    chnl=0 
char id=40      x=280  y=0    width=23   height=83   xoffset=3    yoffset=-1   xadvance=21   page=0    chnl=0 
char id=41      x=303  y=0    width=23   height=83   xoffset=-1   yoffset=-1   xadvance=21   page=0    chnl=0 
char id=42      x=326  y=0    width=37   height=83   xoffset=2    yoffset=-1   xadvance=35   page=0    chnl=0 
char id=43      x=363  y=0    width=49   height=83   xoffset=3    yoffset=-1   xadvance=47   page=0    chnl=0 
char id=44      x=412  y=0    width=20   height=83   xoffset=2    yoffset=-1   xadvance=18   page=0    chnl=0 
char id=45      x=432  y=0    width=28   height=83   xoffset=2    yoffset=-1   xadvance=26   page=0    chnl=0 
char id=46      x=460  y=0    width=20   height=83   xoffset=2    yoffset=-1   xadvance=18   page=0    chnl=0 
char id=47      x=480  y=0    width=28   height=83   xoffset=0    yoffset=-1   xadvance=26   page=0    chnl=0 
char id=48      x=0    y=83   width=39   height=83   xoffset=0    yoffset=-1   xadvance=37   page=0    chnl=0 
char id=49      x=39   y=83   width=39   height=83   xoffset=2    yoffset=-1   xadvance=37   page=0    chnl=0 
char id=50      x=78   y=83   width=39   height=83   xoffset=2    yoffset=-1   xadvance=37   page=0    chnl=0 
char id=51      x=117  y=83   width=39   height=83   xoffset=0    yoffset=-1   xadvance=37   page=0    chnl=0 
char id=52      x=156  y=83   width=39   height=83   xoffset=0    yoffset=-1   xadvance=37   page=0    chnl=0 
char id=53      x=195  y=83   width=39   height=83   xoffset=1    yoffset=-1   xadvance=37   page=0    chnl=0 
char id=54      x=234  y=83   width=39   height=83   xoffset=1    yoffset=-1   xadvance=37   page=0    chnl=0 
char id=55      x=273  y=83   width=39   height=83   xoffset=1    yoffset=-1   xadvance=37   page=0    chnl=0 
char id=56      x=312  y=83   width=39   height=83   xoffset=1    yoffset=-1   xadvance=37   page=0    chnl=0 
char id=57      x=351  y=83   width=39   height=83   xoffset=0    yoffset=-1   xadvance=37   page=0    chnl=0 
char id=58      x=390  y=83   width=20   height=83   xoffset=2    yoffset=-1   xadvance=18   page=0    chnl=0 
char id=59      x=410  y=83   width=20   height=83   xoffset=2    yoffset=-1   xadvance=18   page=0    chnl=0 
char id=60      x=430  y=83   width=34   height=83   xoffset=0    yoffset=-1   xadvance=32   page=0    chnl=0 
char id=61      x=464  y=83   width=43   height=83   xoffset=3    yoffset=-1   xadvance=41   page=0    chnl=0 
char id=62      x=0    y=166  width=34   height=83   xoffset=0    yoffset=-1   xadvance=32   page=0    chnl=0 
char id=63      x=34   y=166  width=36   height=83   xoffset=0    yoffset=-1   xadvance=34   page=0    chnl=0 
char id=64      x=70   y=166  width=66   height=83   xoffset=1    yoffset=-1   xadvance=64   page=0    chnl=0 
char id=65      x=136  y=166  width=44   height=83   xoffset=-1   yoffset=-1   xadvance=42   page=0    chnl=0 
char id=66      x=180  y=166  width=43   height=83   xoffset=3    yoffset=-1   xadvance=41   page=0    chnl=0 
char id=67      x=223  y=166  width=45   height=83   xoffset=1    yoffset=-1   xadvance=43   page=0    chnl=0 
char id=68      x=268  y=166  width=48   height=83   xoffset=3    yoffset=-1   xadvance=46   page=0    chnl=0 
char id=69      x=316  y=166  width=38   height=83   xoffset=3    yoffset=-1   xadvance=36   page=0    chnl=0 
char id=70      x=354  y=166  width=37   height=83   xoffset=3    yoffset=-1   xadvance=35   page=0    chnl=0 
char id=71      x=391  y=166  width=49   height=83   xoffset=1    yoffset=-1   xadvance=47   page=0    chnl=0 
char id=72      x=440  y=166  width=48   height=83   xoffset=3    yoffset=-1   xadvance=46   page=0    chnl=0 
char id=73      x=488  y=166  width=19   height=83   xoffset=3    yoffset=-1   xadvance=17   page=0    chnl=0 
char id=74      x=0    y=249  width=31   height=83   xoffset=-1   yoffset=-1   xadvance=29   page=0    chnl=0 
char id=75      x=31   y=249  width=43   height=83   xoffset=3    yoffset=-1   xadvance=41   page=0    chnl=0 
char id=76      x=74   y=249  width=36   height=83   xoffset=3    yoffset=-1   xadvance=34   page=0    chnl=0 
char id=77      x=110  y=249  width=56   height=83   xoffset=3    yoffset=-1   xadvance=54   page=0    chnl=0 
char id=78      x=166  y=249  width=50   height=83   xoffset=3    yoffset=-1   xadvance=48   page=0    chnl=0 
char id=79      x=216  y=249  width=51   height=83   xoffset=1    yoffset=-1   xadvance=49   page=0    chnl=0 
char id=80      x=267  y=249  width=40   height=83   xoffset=1    yoffset=-1   xadvance=38   page=0    chnl=0 
char id=81      x=307  y=249  width=53   height=83   xoffset=1    yoffset=-1   xadvance=51   page=0    chnl=0 
char id=82      x=360  y=249  width=41   height=83   xoffset=3    yoffset=-1   xadvance=39   page=0    chnl=0 
char id=83      x=401  y=249  width=42   height=83   xoffset=1    yoffset=-1   xadvance=40   page=0    chnl=0 
char id=84      x=443  y=249  width=40   height=83   xoffset=-1   yoffset=-1   xadvance=38   page=0    chnl=0 
char id=85      x=0    y=332  width=47   height=83   xoffset=3    yoffset=-1   xadvance=45   page=0    chnl=0 
char id=86      x=47   y=332  width=44   height=83   xoffset=-1   yoffset=-1   xadvance=42   page=0    chnl=0 
char id=87      x=91   y=332  width=68   height=83   xoffset=-1   yoffset=-1   xadvance=66   page=0    chnl=0 
char id=88      x=159  y=332  width=43   height=83   xoffset=-1   yoffset=-1   xadvance=41   page=0    chnl=0 
char id=89      x=202  y=332  width=43   height=83   xoffset=-1   yoffset=-1   xadvance=41   page=0    chnl=0 
char id=90      x=245  y=332  width=42   height=83   xoffset=1    yoffset=-1   xadvance=40   page=0    chnl=0 
char id=91      x=483  y=249  width=25   height=83   xoffset=4    yoffset=-1   xadvance=23   page=0    chnl=0 
char id=92      x=287  y=332  width=28   height=83   xoffset=-1   yoffset=-1   xadvance=26   page=0    chnl=0 
char id=93      x=315  y=332  width=25   height=83   xoffset=0    yoffset=-1   xadvance=23   page=0    chnl=0 
char id=94      x=340  y=332  width=32   height=83   xoffset=3    yoffset=-1   xadvance=30   page=0    chnl=0 
char id=95      x=372  y=332  width=41   height=83   xoffset=3    yoffset=-1   xadvance=39   page=0    chnl=0 
char id=96      x=413  y=332  width=28   height=83   xoffset=4    yoffset=-1   xadvance=26   page=0    chnl=0 
char id=97      x=441  y=332  width=35   height=83   xoffset=0    yoffset=-1   xadvance=33   page=0    chnl=0 
char id=98      x=0    y=415  width=39   height=83   xoffset=3    yoffset=-1   xadvance=37   page=0    chnl=0 
char id=99      x=476  y=332  width=34   height=83   xoffset=1    yoffset=-1   xadvance=32   page=0    chnl=0 
char id=100     x=39   y=415  width=39   height=83   xoffset=1    yoffset=-1   xadvance=37   page=0    chnl=0 
char id=101     x=78   y=415  width=36   height=83   xoffset=1    yoffset=-1   xadvance=34   page=0    chnl=0 
char id=102     x=114  y=415  width=30   height=83   xoffset=0    yoffset=-1   xadvance=27   page=0    chnl=0 
char id=103     x=144  y=415  width=39   height=83   xoffset=1    yoffset=-1   xadvance=37   page=0    chnl=0 
char id=104     x=183  y=415  width=39   height=83   xoffset=3    yoffset=-1   xadvance=37   page=0    chnl=0 
char id=105     x=222  y=415  width=18   height=83   xoffset=2    yoffset=-1   xadvance=16   page=0    chnl=0 
char id=106     x=240  y=415  width=19   height=83   xoffset=-3   yoffset=-1   xadvance=16   page=0    chnl=0 
char id=107     x=259  y=415  width=37   height=83   xoffset=3    yoffset=-1   xadvance=35   page=0    chnl=0 
char id=108     x=296  y=415  width=20   height=83   xoffset=3    yoffset=-1   xadvance=18   page=0    chnl=0 
char id=109     x=316  y=415  width=57   height=83   xoffset=3    yoffset=-1   xadvance=55   page=0    chnl=0 
char id=110     x=373  y=415  width=39   height=83   xoffset=3    yoffset=-1   xadvance=37   page=0    chnl=0 
char id=111     x=412  y=415  width=39   height=83   xoffset=1    yoffset=-1   xadvance=37   page=0    chnl=0 
char id=112     x=451  y=415  width=39   height=83   xoffset=3    yoffset=-1   xadvance=37   page=0    chnl=0 
char id=113     x=0    y=498  width=39   height=83   xoffset=1    yoffset=-1   xadvance=37   page=0    chnl=0 
char id=124     x=490  y=415  width=20   height=83   xoffset=4    yoffset=-1   xadvance=18   page=0    chnl=0 
char id=160     x=0    y=0    width=0    height=0    xoffset=-1   yoffset=0    xadvance=17   page=0    chnl=0 
char id=8192    x=0    y=0    width=0    height=0    xoffset=-1   yoffset=0    xadvance=32   page=0    chnl=0 
char id=8193    x=0    y=0    width=0    height=0    xoffset=-1   yoffset=0    xadvance=64   page=0    chnl=0 
char id=8194    x=0    y=0    width=0    height=0    xoffset=-1   yoffset=0    xadvance=32   page=0    chnl=0 
char id=8195    x=0    y=0    width=0    height=0    xoffset=-1   yoffset=0    xadvance=64   page=0    chnl=0 
char id=8196    x=0    y=0    width=0    height=0    xoffset=-1   yoffset=0    xadvance=21   page=0    chnl=0 
char id=8197    x=0    y=0    width=0    height=0    xoffset=-1   yoffset=0    xadvance=16   page=0    chnl=0 
char id=8198    x=0    y=0    width=0    height=0    xoffset=-1   yoffset=0    xadvance=11   page=0    chnl=0 
char id=8199    x=0    y=0    width=0    height=0    xoffset=-1   yoffset=0    xadvance=37   page=0    chnl=0 
char id=8200    x=0    y=0    width=0    height=0    xoffset=-1   yoffset=0    xadvance=17   page=0    chnl=0 
char id=8201    x=0    y=0    width=0    height=0    xoffset=-1   yoffset=0    xadvance=13   page=0    chnl=0 
char id=8202    x=0    y=0    width=0    height=0    xoffset=-1   yoffset=0    xadvance=6    page=0    chnl=0 
char id=8203    x=0    y=0    width=0    height=0    xoffset=-1   yoffset=0    xadvance=0    page=0    chnl=0 
char id=8204    x=0    y=0    width=0    height=0    xoffset=-1   yoffset=0    xadvance=17   page=0    chnl=0 
char id=114     x=0    y=0    width=28   height=83   xoffset=3    yoffset=-1   xadvance=26   page=1    chnl=0 
char id=115     x=28   y=0    width=32   height=83   xoffset=0    yoffset=-1   xadvance=30   page=1    chnl=0 
char id=116     x=60   y=0    width=30   height=83   xoffset=0    yoffset=-1   xadvance=28   page=1    chnl=0 
char id=117     x=90   y=0    width=38   height=83   xoffset=2    yoffset=-1   xadvance=36   page=1    chnl=0 
char id=118     x=128  y=0    width=34   height=83   xoffset=-1   yoffset=-1   xadvance=32   page=1    chnl=0 
char id=119     x=162  y=0    width=54   height=83   xoffset=-1   yoffset=-1   xadvance=52   page=1    chnl=0 
char id=120     x=216  y=0    width=34   height=83   xoffset=-1   yoffset=-1   xadvance=32   page=1    chnl=0 
char id=121     x=250  y=0    width=37   height=83   xoffset=-1   yoffset=-1   xadvance=35   page=1    chnl=0 
char id=122     x=287  y=0    width=33   height=83   xoffset=1    yoffset=-1   xadvance=31   page=1    chnl=0 
char id=123     x=320  y=0    width=29   height=83   xoffset=0    yoffset=-1   xadvance=27   page=1    chnl=0 
char id=125     x=349  y=0    width=29   height=83   xoffset=1    yoffset=-1   xadvance=27   page=1    chnl=0 
char id=126     x=378  y=0    width=39   height=83   xoffset=2    yoffset=-1   xadvance=37   page=1    chnl=0 
char id=161     x=417  y=0    width=17   height=83   xoffset=1    yoffset=-1   xadvance=15   page=1    chnl=0 
char id=162     x=434  y=0    width=34   height=83   xoffset=2    yoffset=-1   xadvance=32   page=1    chnl=0 
char id=163     x=468  y=0    width=43   height=83   xoffset=2    yoffset=-1   xadvance=41   page=1    chnl=0 
char id=164     x=0    y=83   width=43   height=83   xoffset=2    yoffset=-1   xadvance=41   page=1    chnl=0 
char id=165     x=43   y=83   width=43   height=83   xoffset=1    yoffset=-1   xadvance=41   page=1    chnl=0 
char id=166     x=86   y=83   width=20   height=83   xoffset=4    yoffset=-1   xadvance=18   page=1    chnl=0 
char id=167     x=106  y=83   width=36   height=83   xoffset=3    yoffset=-1   xadvance=34   page=1    chnl=0 
char id=168     x=142  y=83   width=33   height=83   xoffset=2    yoffset=-1   xadvance=31   page=1    chnl=0 
char id=169     x=175  y=83   width=57   height=83   xoffset=3    yoffset=-1   xadvance=55   page=1    chnl=0 
char id=170     x=232  y=83   width=24   height=83   xoffset=1    yoffset=-1   xadvance=22   page=1    chnl=0 
char id=171     x=256  y=83   width=40   height=83   xoffset=1    yoffset=-1   xadvance=38   page=1    chnl=0 
char id=172     x=296  y=83   width=46   height=83   xoffset=1    yoffset=-1   xadvance=44   page=1    chnl=0 
char id=173     x=342  y=83   width=28   height=83   xoffset=2    yoffset=-1   xadvance=26   page=1    chnl=0 
char id=174     x=370  y=83   width=40   height=83   xoffset=0    yoffset=-1   xadvance=38   page=1    chnl=0 
char id=175     x=410  y=83   width=28   height=83   xoffset=2    yoffset=-1   xadvance=26   page=1    chnl=0 
char id=176     x=438  y=83   width=20   height=83   xoffset=0    yoffset=-1   xadvance=18   page=1    chnl=0 
char id=177     x=458  y=83   width=46   height=83   xoffset=4    yoffset=-1   xadvance=44   page=1    chnl=0 
char id=178     x=0    y=166  width=25   height=83   xoffset=1    yoffset=-1   xadvance=23   page=1    chnl=0 
char id=179     x=25   y=166  width=25   height=83   xoffset=1    yoffset=-1   xadvance=23   page=1    chnl=0 
char id=180     x=50   y=166  width=28   height=83   xoffset=6    yoffset=-1   xadvance=26   page=1    chnl=0 
char id=181     x=78   y=166  width=37   height=83   xoffset=2    yoffset=-1   xadvance=35   page=1    chnl=0 
char id=182     x=115  y=166  width=42   height=83   xoffset=0    yoffset=-1   xadvance=40   page=1    chnl=0 
char id=183     x=157  y=166  width=20   height=83   xoffset=3    yoffset=-1   xadvance=18   page=1    chnl=0 
char id=184     x=177  y=166  width=27   height=83   xoffset=-10  yoffset=-1   xadvance=17   page=1    chnl=0 
char id=185     x=204  y=166  width=17   height=83   xoffset=0    yoffset=-1   xadvance=15   page=1    chnl=0 
char id=186     x=221  y=166  width=26   height=83   xoffset=1    yoffset=-1   xadvance=24   page=1    chnl=0 
char id=187     x=247  y=166  width=40   height=83   xoffset=1    yoffset=-1   xadvance=38   page=1    chnl=0 
char id=188     x=287  y=166  width=55   height=83   xoffset=1    yoffset=-1   xadvance=53   page=1    chnl=0 
char id=189     x=342  y=166  width=56   height=83   xoffset=1    yoffset=-1   xadvance=54   page=1    chnl=0 
char id=190     x=398  y=166  width=59   height=83   xoffset=1    yoffset=-1   xadvance=57   page=1    chnl=0 
char id=191     x=457  y=166  width=36   height=83   xoffset=2    yoffset=-1   xadvance=34   page=1    chnl=0 
char id=192     x=0    y=249  width=44   height=83   xoffset=-1   yoffset=-1   xadvance=42   page=1    chnl=0 
char id=193     x=44   y=249  width=44   height=83   xoffset=-1   yoffset=-1   xadvance=42   page=1    chnl=0 
char id=194     x=88   y=249  width=44   height=83   xoffset=-1   yoffset=-1   xadvance=42   page=1    chnl=0 
char id=195     x=132  y=249  width=44   height=83   xoffset=-1   yoffset=-1   xadvance=42   page=1    chnl=0 
char id=196     x=176  y=249  width=44   height=83   xoffset=-1   yoffset=-1   xadvance=42   page=1    chnl=0 
char id=197     x=220  y=249  width=44   height=83   xoffset=-1   yoffset=-1   xadvance=42   page=1    chnl=0 
char id=198     x=264  y=249  width=61   height=83   xoffset=-1   yoffset=-1   xadvance=59   page=1    chnl=0 
char id=199     x=325  y=249  width=45   height=83   xoffset=1    yoffset=-1   xadvance=43   page=1    chnl=0 
char id=200     x=370  y=249  width=38   height=83   xoffset=3    yoffset=-1   xadvance=36   page=1    chnl=0 
char id=201     x=408  y=249  width=38   height=83   xoffset=3    yoffset=-1   xadvance=36   page=1    chnl=0 
char id=202     x=446  y=249  width=38   height=83   xoffset=3    yoffset=-1   xadvance=36   page=1    chnl=0 
char id=203     x=0    y=332  width=38   height=83   xoffset=3    yoffset=-1   xadvance=36   page=1    chnl=0 
char id=204     x=484  y=249  width=19   height=83   xoffset=0    yoffset=-1   xadvance=17   page=1    chnl=0 
char id=205     x=38   y=332  width=19   height=83   xoffset=2    yoffset=-1   xadvance=17   page=1    chnl=0 
char id=206     x=57   y=332  width=19   height=83   xoffset=-2   yoffset=-1   xadvance=17   page=1    chnl=0 
char id=207     x=76   y=332  width=25   height=83   xoffset=-5   yoffset=-1   xadvance=17   page=1    chnl=0 
char id=208     x=101  y=332  width=52   height=83   xoffset=0    yoffset=-1   xadvance=50   page=1    chnl=0 
char id=209     x=153  y=332  width=50   height=83   xoffset=3    yoffset=-1   xadvance=48   page=1    chnl=0 
char id=210     x=203  y=332  width=51   height=83   xoffset=1    yoffset=-1   xadvance=49   page=1    chnl=0 
char id=211     x=254  y=332  width=51   height=83   xoffset=1    yoffset=-1   xadvance=49   page=1    chnl=0 
char id=212     x=305  y=332  width=51   height=83   xoffset=1    yoffset=-1   xadvance=49   page=1    chnl=0 
char id=213     x=356  y=332  width=51   height=83   xoffset=1    yoffset=-1   xadvance=49   page=1    chnl=0 
char id=214     x=407  y=332  width=51   height=83   xoffset=1    yoffset=-1   xadvance=49   page=1    chnl=0 
char id=215     x=458  y=332  width=36   height=83   xoffset=3    yoffset=-1   xadvance=34   page=1    chnl=0 
char id=216     x=0    y=415  width=51   height=83   xoffset=1    yoffset=-1   xadvance=49   page=1    chnl=0 
char id=217     x=51   y=415  width=47   height=83   xoffset=3    yoffset=-1   xadvance=45   page=1    chnl=0 
char id=218     x=98   y=415  width=47   height=83   xoffset=3    yoffset=-1   xadvance=45   page=1    chnl=0 
char id=219     x=145  y=415  width=47   height=83   xoffset=3    yoffset=-1   xadvance=45   page=1    chnl=0 
char id=220     x=192  y=415  width=47   height=83   xoffset=3    yoffset=-1   xadvance=45   page=1    chnl=0 
char id=221     x=239  y=415  width=43   height=83   xoffset=-1   yoffset=-1   xadvance=41   page=1    chnl=0 
char id=222     x=282  y=415  width=40   height=83   xoffset=1    yoffset=-1   xadvance=38   page=1    chnl=0 
char id=223     x=322  y=415  width=41   height=83   xoffset=3    yoffset=-1   xadvance=39   page=1    chnl=0 
char id=224     x=363  y=415  width=35   height=83   xoffset=0    yoffset=-1   xadvance=33   page=1    chnl=0 
char id=225     x=398  y=415  width=35   height=83   xoffset=0    yoffset=-1   xadvance=33   page=1    chnl=0 
char id=226     x=433  y=415  width=35   height=83   xoffset=0    yoffset=-1   xadvance=33   page=1    chnl=0 
char id=227     x=468  y=415  width=35   height=83   xoffset=0    yoffset=-1   xadvance=33   page=1    chnl=0 
char id=228     x=0    y=498  width=35   height=83   xoffset=0    yoffset=-1   xadvance=33   page=1    chnl=0 
char id=236     x=493  y=166  width=18   height=83   xoffset=0    yoffset=-1   xadvance=16   page=1    chnl=0 
char id=8216    x=494  y=332  width=14   height=83   xoffset=0    yoffset=-1   xadvance=12   page=1    chnl=0 
char id=229     x=0    y=0    width=35   height=83   xoffset=0    yoffset=-1   xadvance=33   page=2    chnl=0 
char id=230     x=35   y=0    width=54   height=83   xoffset=0    yoffset=-1   xadvance=52   page=2    chnl=0 
char id=231     x=89   y=0    width=34   height=83   xoffset=1    yoffset=-1   xadvance=32   page=2    chnl=0 
char id=232     x=123  y=0    width=36   height=83   xoffset=1    yoffset=-1   xadvance=34   page=2    chnl=0 
char id=233     x=159  y=0    width=36   height=83   xoffset=1    yoffset=-1   xadvance=34   page=2    chnl=0 
char id=234     x=195  y=0    width=36   height=83   xoffset=1    yoffset=-1   xadvance=34   page=2    chnl=0 
char id=235     x=231  y=0    width=36   height=83   xoffset=1    yoffset=-1   xadvance=34   page=2    chnl=0 
char id=237     x=267  y=0    width=18   height=83   xoffset=1    yoffset=-1   xadvance=16   page=2    chnl=0 
char id=238     x=285  y=0    width=20   height=83   xoffset=-3   yoffset=-1   xadvance=16   page=2    chnl=0 
char id=239     x=305  y=0    width=24   height=83   xoffset=-5   yoffset=-1   xadvance=16   page=2    chnl=0 
char id=240     x=329  y=0    width=36   height=83   xoffset=1    yoffset=-1   xadvance=34   page=2    chnl=0 
char id=241     x=365  y=0    width=39   height=83   xoffset=3    yoffset=-1   xadvance=37   page=2    chnl=0 
char id=242     x=404  y=0    width=39   height=83   xoffset=1    yoffset=-1   xadvance=37   page=2    chnl=0 
char id=243     x=443  y=0    width=39   height=83   xoffset=1    yoffset=-1   xadvance=37   page=2    chnl=0 
char id=244     x=0    y=83   width=39   height=83   xoffset=1    yoffset=-1   xadvance=37   page=2    chnl=0 
char id=245     x=39   y=83   width=39   height=83   xoffset=1    yoffset=-1   xadvance=37   page=2    chnl=0 
char id=246     x=78   y=83   width=39   height=83   xoffset=1    yoffset=-1   xadvance=37   page=2    chnl=0 
char id=247     x=117  y=83   width=43   height=83   xoffset=3    yoffset=-1   xadvance=41   page=2    chnl=0 
char id=248     x=160  y=83   width=39   height=83   xoffset=1    yoffset=-1   xadvance=37   page=2    chnl=0 
char id=249     x=199  y=83   width=38   height=83   xoffset=2    yoffset=-1   xadvance=36   page=2    chnl=0 
char id=250     x=237  y=83   width=38   height=83   xoffset=2    yoffset=-1   xadvance=36   page=2    chnl=0 
char id=251     x=275  y=83   width=38   height=83   xoffset=2    yoffset=-1   xadvance=36   page=2    chnl=0 
char id=252     x=313  y=83   width=38   height=83   xoffset=2    yoffset=-1   xadvance=36   page=2    chnl=0 
char id=253     x=351  y=83   width=37   height=83   xoffset=-1   yoffset=-1   xadvance=35   page=2    chnl=0 
char id=254     x=388  y=83   width=39   height=83   xoffset=3    yoffset=-1   xadvance=37   page=2    chnl=0 
char id=255     x=427  y=83   width=37   height=83   xoffset=-1   yoffset=-1   xadvance=35   page=2    chnl=0 
char id=256     x=464  y=83   width=44   height=83   xoffset=-1   yoffset=-1   xadvance=42   page=2    chnl=0 
char id=257     x=0    y=166  width=35   height=83   xoffset=0    yoffset=-1   xadvance=33   page=2    chnl=0 
char id=258     x=35   y=166  width=44   height=83   xoffset=-1   yoffset=-1   xadvance=42   page=2    chnl=0 
char id=259     x=79   y=166  width=35   height=83   xoffset=0    yoffset=-1   xadvance=33   page=2    chnl=0 
char id=260     x=114  y=166  width=44   height=83   xoffset=-1   yoffset=-1   xadvance=42   page=2    chnl=0 
char id=261     x=158  y=166  width=35   height=83   xoffset=0    yoffset=-1   xadvance=33   page=2    chnl=0 
char id=262     x=193  y=166  width=45   height=83   xoffset=1    yoffset=-1   xadvance=43   page=2    chnl=0 
char id=263     x=238  y=166  width=34   height=83   xoffset=1    yoffset=-1   xadvance=32   page=2    chnl=0 
char id=264     x=272  y=166  width=45   height=83   xoffset=1    yoffset=-1   xadvance=43   page=2    chnl=0 
char id=265     x=317  y=166  width=34   height=83   xoffset=1    yoffset=-1   xadvance=32   page=2    chnl=0 
char id=266     x=351  y=166  width=45   height=83   xoffset=1    yoffset=-1   xadvance=43   page=2    chnl=0 
char id=267     x=396  y=166  width=34   height=83   xoffset=1    yoffset=-1   xadvance=32   page=2    chnl=0 
char id=268     x=430  y=166  width=45   height=83   xoffset=1    yoffset=-1   xadvance=43   page=2    chnl=0 
char id=269     x=475  y=166  width=34   height=83   xoffset=1    yoffset=-1   xadvance=32   page=2    chnl=0 
char id=270     x=0    y=249  width=48   height=83   xoffset=3    yoffset=-1   xadvance=46   page=2    chnl=0 
char id=271     x=48   y=249  width=45   height=83   xoffset=1    yoffset=-1   xadvance=37   page=2    chnl=0 
char id=272     x=93   y=249  width=52   height=83   xoffset=0    yoffset=-1   xadvance=50   page=2    chnl=0 
char id=273     x=145  y=249  width=39   height=83   xoffset=1    yoffset=-1   xadvance=37   page=2    chnl=0 
char id=274     x=184  y=249  width=38   height=83   xoffset=3    yoffset=-1   xadvance=36   page=2    chnl=0 
char id=275     x=222  y=249  width=36   height=83   xoffset=1    yoffset=-1   xadvance=34   page=2    chnl=0 
char id=276     x=258  y=249  width=38   height=83   xoffset=3    yoffset=-1   xadvance=36   page=2    chnl=0 
char id=277     x=296  y=249  width=36   height=83   xoffset=1    yoffset=-1   xadvance=34   page=2    chnl=0 
char id=278     x=332  y=249  width=38   height=83   xoffset=3    yoffset=-1   xadvance=36   page=2    chnl=0 
char id=279     x=370  y=249  width=36   height=83   xoffset=1    yoffset=-1   xadvance=34   page=2    chnl=0 
char id=280     x=406  y=249  width=38   height=83   xoffset=3    yoffset=-1   xadvance=36   page=2    chnl=0 
char id=281     x=444  y=249  width=36   height=83   xoffset=1    yoffset=-1   xadvance=34   page=2    chnl=0 
char id=282     x=0    y=332  width=38   height=83   xoffset=3    yoffset=-1   xadvance=36   page=2    chnl=0 
char id=283     x=38   y=332  width=36   height=83   xoffset=1    yoffset=-1   xadvance=34   page=2    chnl=0 
char id=284     x=74   y=332  width=49   height=83   xoffset=1    yoffset=-1   xadvance=47   page=2    chnl=0 
char id=285     x=123  y=332  width=39   height=83   xoffset=1    yoffset=-1   xadvance=37   page=2    chnl=0 
char id=286     x=162  y=332  width=49   height=83   xoffset=1    yoffset=-1   xadvance=47   page=2    chnl=0 
char id=287     x=211  y=332  width=39   height=83   xoffset=1    yoffset=-1   xadvance=37   page=2    chnl=0 
char id=288     x=250  y=332  width=49   height=83   xoffset=1    yoffset=-1   xadvance=47   page=2    chnl=0 
char id=289     x=299  y=332  width=39   height=83   xoffset=1    yoffset=-1   xadvance=37   page=2    chnl=0 
char id=290     x=338  y=332  width=49   height=83   xoffset=1    yoffset=-1   xadvance=47   page=2    chnl=0 
char id=291     x=387  y=332  width=39   height=83   xoffset=1    yoffset=-1   xadvance=37   page=2    chnl=0 
char id=292     x=426  y=332  width=48   height=83   xoffset=3    yoffset=-1   xadvance=46   page=2    chnl=0 
char id=293     x=0    y=415  width=40   height=83   xoffset=-3   yoffset=-1   xadvance=37   page=2    chnl=0 
char id=294     x=40   y=415  width=55   height=83   xoffset=0    yoffset=-1   xadvance=53   page=2    chnl=0 
char id=295     x=95   y=415  width=39   height=83   xoffset=-2   yoffset=-1   xadvance=37   page=2    chnl=0 
char id=296     x=482  y=0    width=25   height=83   xoffset=-5   yoffset=-1   xadvance=17   page=2    chnl=0 
char id=297     x=480  y=249  width=25   height=83   xoffset=-5   yoffset=-1   xadvance=16   page=2    chnl=0 
char id=298     x=474  y=332  width=21   height=83   xoffset=-3   yoffset=-1   xadvance=17   page=2    chnl=0 
char id=299     x=134  y=415  width=20   height=83   xoffset=-3   yoffset=-1   xadvance=16   page=2    chnl=0 
char id=300     x=154  y=415  width=25   height=83   xoffset=-5   yoffset=-1   xadvance=17   page=2    chnl=0 
char id=301     x=179  y=415  width=24   height=83   xoffset=-5   yoffset=-1   xadvance=16   page=2    chnl=0 
char id=302     x=203  y=415  width=23   height=83   xoffset=-6   yoffset=-1   xadvance=17   page=2    chnl=0 
char id=303     x=226  y=415  width=22   height=83   xoffset=-6   yoffset=-1   xadvance=16   page=2    chnl=0 
char id=304     x=248  y=415  width=19   height=83   xoffset=2    yoffset=-1   xadvance=17   page=2    chnl=0 
char id=305     x=267  y=415  width=18   height=83   xoffset=3    yoffset=-1   xadvance=16   page=2    chnl=0 
char id=306     x=285  y=415  width=48   height=83   xoffset=3    yoffset=-1   xadvance=46   page=2    chnl=0 
char id=307     x=333  y=415  width=34   height=83   xoffset=2    yoffset=-1   xadvance=32   page=2    chnl=0 
char id=308     x=367  y=415  width=31   height=83   xoffset=-1   yoffset=-1   xadvance=29   page=2    chnl=0 
char id=309     x=398  y=415  width=20   height=83   xoffset=-3   yoffset=-1   xadvance=16   page=2    chnl=0 
char id=310     x=418  y=415  width=43   height=83   xoffset=3    yoffset=-1   xadvance=41   page=2    chnl=0 
char id=311     x=461  y=415  width=37   height=83   xoffset=3    yoffset=-1   xadvance=35   page=2    chnl=0 
char id=312     x=0    y=498  width=39   height=83   xoffset=3    yoffset=-1   xadvance=37   page=2    chnl=0 
char id=8217    x=495  y=332  width=14   height=83   xoffset=0    yoffset=-1   xadvance=12   page=2    chnl=0 
char id=8242    x=498  y=415  width=13   height=83   xoffset=-1   yoffset=-1   xadvance=11   page=2    chnl=0 
char id=313     x=0    y=0    width=36   height=83   xoffset=2    yoffset=-1   xadvance=34   page=3    chnl=0 
char id=314     x=36   y=0    width=20   height=83   xoffset=1    yoffset=-1   xadvance=18   page=3    chnl=0 
char id=315     x=56   y=0    width=36   height=83   xoffset=3    yoffset=-1   xadvance=34   page=3    chnl=0 
char id=316     x=92   y=0    width=20   height=83   xoffset=2    yoffset=-1   xadvance=18   page=3    chnl=0 
char id=317     x=112  y=0    width=36   height=83   xoffset=3    yoffset=-1   xadvance=34   page=3    chnl=0 
char id=318     x=148  y=0    width=26   height=83   xoffset=3    yoffset=-1   xadvance=18   page=3    chnl=0 
char id=319     x=174  y=0    width=36   height=83   xoffset=3    yoffset=-1   xadvance=34   page=3    chnl=0 
char id=320     x=210  y=0    width=30   height=83   xoffset=3    yoffset=-1   xadvance=28   page=3    chnl=0 
char id=321     x=240  y=0    width=37   height=83   xoffset=0    yoffset=-1   xadvance=35   page=3    chnl=0 
char id=322     x=277  y=0    width=23   height=83   xoffset=-1   yoffset=-1   xadvance=21   page=3    chnl=0 
char id=323     x=300  y=0    width=50   height=83   xoffset=3    yoffset=-1   xadvance=48   page=3    chnl=0 
char id=324     x=350  y=0    width=39   height=83   xoffset=3    yoffset=-1   xadvance=37   page=3    chnl=0 
char id=325     x=389  y=0    width=50   height=83   xoffset=3    yoffset=-1   xadvance=48   page=3    chnl=0 
char id=326     x=439  y=0    width=39   height=83   xoffset=3    yoffset=-1   xadvance=37   page=3    chnl=0 
char id=327     x=0    y=83   width=50   height=83   xoffset=3    yoffset=-1   xadvance=48   page=3    chnl=0 
char id=328     x=50   y=83   width=39   height=83   xoffset=3    yoffset=-1   xadvance=37   page=3    chnl=0 
char id=329     x=89   y=83   width=45   height=83   xoffset=1    yoffset=-1   xadvance=43   page=3    chnl=0 
char id=330     x=134  y=83   width=52   height=83   xoffset=3    yoffset=-1   xadvance=50   page=3    chnl=0 
char id=331     x=186  y=83   width=41   height=83   xoffset=3    yoffset=-1   xadvance=39   page=3    chnl=0 
char id=332     x=227  y=83   width=51   height=83   xoffset=1    yoffset=-1   xadvance=49   page=3    chnl=0 
char id=333     x=278  y=83   width=39   height=83   xoffset=1    yoffset=-1   xadvance=37   page=3    chnl=0 
char id=334     x=317  y=83   width=51   height=83   xoffset=1    yoffset=-1   xadvance=49   page=3    chnl=0 
char id=335     x=368  y=83   width=39   height=83   xoffset=1    yoffset=-1   xadvance=37   page=3    chnl=0 
char id=336     x=407  y=83   width=51   height=83   xoffset=1    yoffset=-1   xadvance=49   page=3    chnl=0 
char id=337     x=458  y=83   width=39   height=83   xoffset=1    yoffset=-1   xadvance=37   page=3    chnl=0 
char id=338     x=0    y=166  width=60   height=83   xoffset=1    yoffset=-1   xadvance=58   page=3    chnl=0 
char id=339     x=60   y=166  width=60   height=83   xoffset=1    yoffset=-1   xadvance=58   page=3    chnl=0 
char id=340     x=120  y=166  width=41   height=83   xoffset=3    yoffset=-1   xadvance=39   page=3    chnl=0 
char id=341     x=478  y=0    width=28   height=83   xoffset=3    yoffset=-1   xadvance=26   page=3    chnl=0 
char id=342     x=161  y=166  width=41   height=83   xoffset=3    yoffset=-1   xadvance=39   page=3    chnl=0 
char id=343     x=202  y=166  width=28   height=83   xoffset=0    yoffset=-1   xadvance=26   page=3    chnl=0 
char id=344     x=230  y=166  width=41   height=83   xoffset=3    yoffset=-1   xadvance=39   page=3    chnl=0 
char id=345     x=271  y=166  width=28   height=83   xoffset=3    yoffset=-1   xadvance=26   page=3    chnl=0 
char id=346     x=299  y=166  width=42   height=83   xoffset=1    yoffset=-1   xadvance=40   page=3    chnl=0 
char id=347     x=341  y=166  width=32   height=83   xoffset=0    yoffset=-1   xadvance=30   page=3    chnl=0 
char id=348     x=373  y=166  width=42   height=83   xoffset=1    yoffset=-1   xadvance=40   page=3    chnl=0 
char id=349     x=415  y=166  width=32   height=83   xoffset=0    yoffset=-1   xadvance=30   page=3    chnl=0 
char id=350     x=447  y=166  width=42   height=83   xoffset=1    yoffset=-1   xadvance=40   page=3    chnl=0 
char id=351     x=0    y=249  width=32   height=83   xoffset=0    yoffset=-1   xadvance=30   page=3    chnl=0 
char id=352     x=32   y=249  width=42   height=83   xoffset=1    yoffset=-1   xadvance=40   page=3    chnl=0 
char id=353     x=74   y=249  width=32   height=83   xoffset=0    yoffset=-1   xadvance=30   page=3    chnl=0 
char id=354     x=106  y=249  width=40   height=83   xoffset=-1   yoffset=-1   xadvance=38   page=3    chnl=0 
char id=355     x=146  y=249  width=30   height=83   xoffset=0    yoffset=-1   xadvance=28   page=3    chnl=0 
char id=356     x=176  y=249  width=40   height=83   xoffset=-1   yoffset=-1   xadvance=38   page=3    chnl=0 
char id=357     x=216  y=249  width=30   height=83   xoffset=0    yoffset=-1   xadvance=28   page=3    chnl=0 
char id=358     x=246  y=249  width=40   height=83   xoffset=-1   yoffset=-1   xadvance=38   page=3    chnl=0 
char id=359     x=286  y=249  width=30   height=83   xoffset=0    yoffset=-1   xadvance=28   page=3    chnl=0 
char id=360     x=316  y=249  width=47   height=83   xoffset=3    yoffset=-1   xadvance=45   page=3    chnl=0 
char id=361     x=363  y=249  width=38   height=83   xoffset=2    yoffset=-1   xadvance=36   page=3    chnl=0 
char id=362     x=401  y=249  width=47   height=83   xoffset=3    yoffset=-1   xadvance=45   page=3    chnl=0 
char id=363     x=448  y=249  width=38   height=83   xoffset=2    yoffset=-1   xadvance=36   page=3    chnl=0 
char id=364     x=0    y=332  width=47   height=83   xoffset=3    yoffset=-1   xadvance=45   page=3    chnl=0 
char id=365     x=47   y=332  width=38   height=83   xoffset=2    yoffset=-1   xadvance=36   page=3    chnl=0 
char id=366     x=85   y=332  width=47   height=83   xoffset=3    yoffset=-1   xadvance=45   page=3    chnl=0 
char id=367     x=132  y=332  width=38   height=83   xoffset=2    yoffset=-1   xadvance=36   page=3    chnl=0 
char id=368     x=170  y=332  width=47   height=83   xoffset=3    yoffset=-1   xadvance=45   page=3    chnl=0 
char id=369     x=217  y=332  width=38   height=83   xoffset=2    yoffset=-1   xadvance=36   page=3    chnl=0 
char id=370     x=255  y=332  width=47   height=83   xoffset=3    yoffset=-1   xadvance=45   page=3    chnl=0 
char id=371     x=302  y=332  width=38   height=83   xoffset=2    yoffset=-1   xadvance=36   page=3    chnl=0 
char id=372     x=340  y=332  width=68   height=83   xoffset=-1   yoffset=-1   xadvance=66   page=3    chnl=0 
char id=373     x=408  y=332  width=54   height=83   xoffset=-1   yoffset=-1   xadvance=52   page=3    chnl=0 
char id=374     x=462  y=332  width=43   height=83   xoffset=-1   yoffset=-1   xadvance=41   page=3    chnl=0 
char id=375     x=0    y=415  width=37   height=83   xoffset=-1   yoffset=-1   xadvance=35   page=3    chnl=0 
char id=376     x=37   y=415  width=43   height=83   xoffset=-1   yoffset=-1   xadvance=41   page=3    chnl=0 
char id=377     x=80   y=415  width=42   height=83   xoffset=1    yoffset=-1   xadvance=40   page=3    chnl=0 
char id=378     x=122  y=415  width=33   height=83   xoffset=1    yoffset=-1   xadvance=31   page=3    chnl=0 
char id=379     x=155  y=415  width=42   height=83   xoffset=1    yoffset=-1   xadvance=40   page=3    chnl=0 
char id=380     x=197  y=415  width=33   height=83   xoffset=1    yoffset=-1   xadvance=31   page=3    chnl=0 
char id=381     x=230  y=415  width=42   height=83   xoffset=1    yoffset=-1   xadvance=40   page=3    chnl=0 
char id=382     x=272  y=415  width=33   height=83   xoffset=1    yoffset=-1   xadvance=31   page=3    chnl=0 
char id=960     x=305  y=415  width=45   height=83   xoffset=2    yoffset=-1   xadvance=43   page=3    chnl=0 
char id=1024    x=350  y=415  width=38   height=83   xoffset=3    yoffset=-1   xadvance=36   page=3    chnl=0 
char id=1025    x=388  y=415  width=38   height=83   xoffset=3    yoffset=-1   xadvance=36   page=3    chnl=0 
char id=1026    x=426  y=415  width=48   height=83   xoffset=-1   yoffset=-1   xadvance=46   page=3    chnl=0 
char id=1027    x=474  y=415  width=35   height=83   xoffset=3    yoffset=-1   xadvance=33   page=3    chnl=0 
char id=1028    x=0    y=498  width=45   height=83   xoffset=1    yoffset=-1   xadvance=43   page=3    chnl=0 
char id=1030    x=489  y=166  width=19   height=83   xoffset=3    yoffset=-1   xadvance=17   page=3    chnl=0 
char id=1031    x=486  y=249  width=25   height=83   xoffset=-5   yoffset=-1   xadvance=17   page=3    chnl=0 
char id=8218    x=497  y=83   width=14   height=83   xoffset=0    yoffset=-1   xadvance=12   page=3    chnl=0 
char id=1029    x=0    y=0    width=42   height=83   xoffset=1    yoffset=-1   xadvance=40   page=4    chnl=0 
char id=1032    x=42   y=0    width=31   height=83   xoffset=-1   yoffset=-1   xadvance=29   page=4    chnl=0 
char id=1033    x=73   y=0    width=72   height=83   xoffset=0    yoffset=-1   xadvance=70   page=4    chnl=0 
char id=1034    x=145  y=0    width=71   height=83   xoffset=3    yoffset=-1   xadvance=69   page=4    chnl=0 
char id=1035    x=216  y=0    width=48   height=83   xoffset=-1   yoffset=-1   xadvance=46   page=4    chnl=0 
char id=1036    x=264  y=0    width=40   height=83   xoffset=3    yoffset=-1   xadvance=38   page=4    chnl=0 
char id=1037    x=304  y=0    width=50   height=83   xoffset=3    yoffset=-1   xadvance=48   page=4    chnl=0 
char id=1038    x=354  y=0    width=43   height=83   xoffset=-1   yoffset=-1   xadvance=41   page=4    chnl=0 
char id=1039    x=397  y=0    width=47   height=83   xoffset=3    yoffset=-1   xadvance=45   page=4    chnl=0 
char id=1040    x=444  y=0    width=44   height=83   xoffset=-1   yoffset=-1   xadvance=42   page=4    chnl=0 
char id=1041    x=0    y=83   width=40   height=83   xoffset=3    yoffset=-1   xadvance=38   page=4    chnl=0 
char id=1042    x=40   y=83   width=43   height=83   xoffset=3    yoffset=-1   xadvance=41   page=4    chnl=0 
char id=1043    x=83   y=83   width=35   height=83   xoffset=3    yoffset=-1   xadvance=33   page=4    chnl=0 
char id=1044    x=118  y=83   width=53   height=83   xoffset=1    yoffset=-1   xadvance=51   page=4    chnl=0 
char id=1045    x=171  y=83   width=38   height=83   xoffset=3    yoffset=-1   xadvance=36   page=4    chnl=0 
char id=1046    x=209  y=83   width=61   height=83   xoffset=-1   yoffset=-1   xadvance=59   page=4    chnl=0 
char id=1047    x=270  y=83   width=39   height=83   xoffset=-1   yoffset=-1   xadvance=37   page=4    chnl=0 
char id=1048    x=309  y=83   width=50   height=83   xoffset=3    yoffset=-1   xadvance=48   page=4    chnl=0 
char id=1049    x=359  y=83   width=50   height=83   xoffset=3    yoffset=-1   xadvance=48   page=4    chnl=0 
char id=1050    x=409  y=83   width=40   height=83   xoffset=3    yoffset=-1   xadvance=38   page=4    chnl=0 
char id=1051    x=449  y=83   width=50   height=83   xoffset=-1   yoffset=-1   xadvance=48   page=4    chnl=0 
char id=1052    x=0    y=166  width=56   height=83   xoffset=3    yoffset=-1   xadvance=54   page=4    chnl=0 
char id=1053    x=56   y=166  width=48   height=83   xoffset=3    yoffset=-1   xadvance=46   page=4    chnl=0 
char id=1054    x=104  y=166  width=51   height=83   xoffset=1    yoffset=-1   xadvance=49   page=4    chnl=0 
char id=1055    x=155  y=166  width=48   height=83   xoffset=3    yoffset=-1   xadvance=46   page=4    chnl=0 
char id=1056    x=203  y=166  width=40   height=83   xoffset=1    yoffset=-1   xadvance=38   page=4    chnl=0 
char id=1057    x=243  y=166  width=45   height=83   xoffset=1    yoffset=-1   xadvance=43   page=4    chnl=0 
char id=1058    x=288  y=166  width=40   height=83   xoffset=-1   yoffset=-1   xadvance=38   page=4    chnl=0 
char id=1059    x=328  y=166  width=43   height=83   xoffset=-1   yoffset=-1   xadvance=41   page=4    chnl=0 
char id=1060    x=371  y=166  width=60   height=83   xoffset=1    yoffset=-1   xadvance=58   page=4    chnl=0 
char id=1061    x=431  y=166  width=43   height=83   xoffset=-1   yoffset=-1   xadvance=41   page=4    chnl=0 
char id=1062    x=0    y=249  width=50   height=83   xoffset=3    yoffset=-1   xadvance=48   page=4    chnl=0 
char id=1063    x=50   y=249  width=42   height=83   xoffset=1    yoffset=-1   xadvance=40   page=4    chnl=0 
char id=1064    x=92   y=249  width=63   height=83   xoffset=3    yoffset=-1   xadvance=61   page=4    chnl=0 
char id=1065    x=155  y=249  width=66   height=83   xoffset=3    yoffset=-1   xadvance=64   page=4    chnl=0 
char id=1066    x=221  y=249  width=47   height=83   xoffset=0    yoffset=-1   xadvance=45   page=4    chnl=0 
char id=1067    x=268  y=249  width=54   height=83   xoffset=3    yoffset=-1   xadvance=52   page=4    chnl=0 
char id=1068    x=322  y=249  width=40   height=83   xoffset=3    yoffset=-1   xadvance=38   page=4    chnl=0 
char id=1069    x=362  y=249  width=45   height=83   xoffset=1    yoffset=-1   xadvance=43   page=4    chnl=0 
char id=1070    x=407  y=249  width=66   height=83   xoffset=3    yoffset=-1   xadvance=64   page=4    chnl=0 
char id=1071    x=0    y=332  width=41   height=83   xoffset=-1   yoffset=-1   xadvance=39   page=4    chnl=0 
char id=1072    x=474  y=166  width=35   height=83   xoffset=0    yoffset=-1   xadvance=33   page=4    chnl=0 
char id=1073    x=41   y=332  width=40   height=83   xoffset=1    yoffset=-1   xadvance=38   page=4    chnl=0 
char id=1074    x=473  y=249  width=35   height=83   xoffset=3    yoffset=-1   xadvance=33   page=4    chnl=0 
char id=1075    x=81   y=332  width=26   height=83   xoffset=3    yoffset=-1   xadvance=24   page=4    chnl=0 
char id=1076    x=107  y=332  width=41   height=83   xoffset=0    yoffset=-1   xadvance=39   page=4    chnl=0 
char id=1077    x=148  y=332  width=36   height=83   xoffset=1    yoffset=-1   xadvance=34   page=4    chnl=0 
char id=1078    x=184  y=332  width=48   height=83   xoffset=-1   yoffset=-1   xadvance=46   page=4    chnl=0 
char id=1079    x=232  y=332  width=32   height=83   xoffset=0    yoffset=-1   xadvance=30   page=4    chnl=0 
char id=1080    x=264  y=332  width=39   height=83   xoffset=3    yoffset=-1   xadvance=37   page=4    chnl=0 
char id=1081    x=303  y=332  width=39   height=83   xoffset=3    yoffset=-1   xadvance=37   page=4    chnl=0 
char id=1082    x=342  y=332  width=33   height=83   xoffset=3    yoffset=-1   xadvance=31   page=4    chnl=0 
char id=1083    x=375  y=332  width=39   height=83   xoffset=0    yoffset=-1   xadvance=37   page=4    chnl=0 
char id=1084    x=414  y=332  width=45   height=83   xoffset=3    yoffset=-1   xadvance=43   page=4    chnl=0 
char id=1085    x=459  y=332  width=39   height=83   xoffset=3    yoffset=-1   xadvance=37   page=4    chnl=0 
char id=1086    x=0    y=415  width=39   height=83   xoffset=1    yoffset=-1   xadvance=37   page=4    chnl=0 
char id=1087    x=39   y=415  width=39   height=83   xoffset=3    yoffset=-1   xadvance=37   page=4    chnl=0 
char id=1088    x=78   y=415  width=39   height=83   xoffset=3    yoffset=-1   xadvance=37   page=4    chnl=0 
char id=1089    x=117  y=415  width=34   height=83   xoffset=1    yoffset=-1   xadvance=32   page=4    chnl=0 
char id=1090    x=151  y=415  width=28   height=83   xoffset=-1   yoffset=-1   xadvance=26   page=4    chnl=0 
char id=1091    x=179  y=415  width=37   height=83   xoffset=-1   yoffset=-1   xadvance=35   page=4    chnl=0 
char id=1092    x=216  y=415  width=59   height=83   xoffset=1    yoffset=-1   xadvance=57   page=4    chnl=0 
char id=1093    x=275  y=415  width=34   height=83   xoffset=-1   yoffset=-1   xadvance=32   page=4    chnl=0 
char id=1094    x=309  y=415  width=40   height=83   xoffset=3    yoffset=-1   xadvance=38   page=4    chnl=0 
char id=1095    x=349  y=415  width=39   height=83   xoffset=2    yoffset=-1   xadvance=37   page=4    chnl=0 
char id=1096    x=388  y=415  width=51   height=83   xoffset=3    yoffset=-1   xadvance=49   page=4    chnl=0 
char id=1097    x=439  y=415  width=52   height=83   xoffset=3    yoffset=-1   xadvance=50   page=4    chnl=0 
char id=1098    x=0    y=498  width=38   height=83   xoffset=0    yoffset=-1   xadvance=36   page=4    chnl=0 
char id=1110    x=488  y=0    width=18   height=83   xoffset=2    yoffset=-1   xadvance=16   page=4    chnl=0 
char id=1112    x=491  y=415  width=19   height=83   xoffset=-3   yoffset=-1   xadvance=16   page=4    chnl=0 
char id=1099    x=0    y=0    width=46   height=83   xoffset=3    yoffset=-1   xadvance=44   page=5    chnl=0 
char id=1100    x=46   y=0    width=34   height=83   xoffset=2    yoffset=-1   xadvance=32   page=5    chnl=0 
char id=1101    x=80   y=0    width=35   height=83   xoffset=1    yoffset=-1   xadvance=33   page=5    chnl=0 
char id=1102    x=115  y=0    width=53   height=83   xoffset=3    yoffset=-1   xadvance=51   page=5    chnl=0 
char id=1103    x=168  y=0    width=34   height=83   xoffset=-1   yoffset=-1   xadvance=32   page=5    chnl=0 
char id=1104    x=202  y=0    width=36   height=83   xoffset=1    yoffset=-1   xadvance=34   page=5    chnl=0 
char id=1105    x=238  y=0    width=36   height=83   xoffset=1    yoffset=-1   xadvance=34   page=5    chnl=0 
char id=1106    x=274  y=0    width=37   height=83   xoffset=-1   yoffset=-1   xadvance=35   page=5    chnl=0 
char id=1107    x=311  y=0    width=26   height=83   xoffset=3    yoffset=-1   xadvance=24   page=5    chnl=0 
char id=1108    x=337  y=0    width=34   height=83   xoffset=1    yoffset=-1   xadvance=32   page=5    chnl=0 
char id=1109    x=371  y=0    width=32   height=83   xoffset=0    yoffset=-1   xadvance=30   page=5    chnl=0 
char id=1111    x=403  y=0    width=24   height=83   xoffset=-5   yoffset=-1   xadvance=16   page=5    chnl=0 
char id=1113    x=427  y=0    width=54   height=83   xoffset=0    yoffset=-1   xadvance=52   page=5    chnl=0 
char id=1114    x=0    y=83   width=54   height=83   xoffset=3    yoffset=-1   xadvance=52   page=5    chnl=0 
char id=1115    x=54   y=83   width=38   height=83   xoffset=-2   yoffset=-1   xadvance=36   page=5    chnl=0 
char id=1116    x=92   y=83   width=33   height=83   xoffset=3    yoffset=-1   xadvance=31   page=5    chnl=0 
char id=1117    x=125  y=83   width=39   height=83   xoffset=3    yoffset=-1   xadvance=37   page=5    chnl=0 
char id=1118    x=164  y=83   width=37   height=83   xoffset=-1   yoffset=-1   xadvance=35   page=5    chnl=0 
char id=1119    x=201  y=83   width=39   height=83   xoffset=3    yoffset=-1   xadvance=37   page=5    chnl=0 
char id=1122    x=240  y=83   width=42   height=83   xoffset=-1   yoffset=-1   xadvance=40   page=5    chnl=0 
char id=1123    x=282  y=83   width=38   height=83   xoffset=-1   yoffset=-1   xadvance=36   page=5    chnl=0 
char id=1138    x=320  y=83   width=51   height=83   xoffset=1    yoffset=-1   xadvance=49   page=5    chnl=0 
char id=1139    x=371  y=83   width=39   height=83   xoffset=1    yoffset=-1   xadvance=37   page=5    chnl=0 
char id=1140    x=410  y=83   width=45   height=83   xoffset=-1   yoffset=-1   xadvance=43   page=5    chnl=0 
char id=1141    x=455  y=83   width=35   height=83   xoffset=-1   yoffset=-1   xadvance=33   page=5    chnl=0 
char id=1168    x=0    y=166  width=36   height=83   xoffset=3    yoffset=-1   xadvance=34   page=5    chnl=0 
char id=1169    x=481  y=0    width=26   height=83   xoffset=3    yoffset=-1   xadvance=24   page=5    chnl=0 
char id=1170    x=36   y=166  width=35   height=83   xoffset=-1   yoffset=-1   xadvance=33   page=5    chnl=0 
char id=1171    x=71   y=166  width=26   height=83   xoffset=-1   yoffset=-1   xadvance=24   page=5    chnl=0 
char id=1174    x=97   y=166  width=62   height=83   xoffset=-1   yoffset=-1   xadvance=60   page=5    chnl=0 
char id=1175    x=159  y=166  width=50   height=83   xoffset=-1   yoffset=-1   xadvance=48   page=5    chnl=0 
char id=1176    x=209  y=166  width=39   height=83   xoffset=-1   yoffset=-1   xadvance=37   page=5    chnl=0 
char id=1177    x=248  y=166  width=32   height=83   xoffset=0    yoffset=-1   xadvance=30   page=5    chnl=0 
char id=1178    x=280  y=166  width=42   height=83   xoffset=3    yoffset=-1   xadvance=40   page=5    chnl=0 
char id=1179    x=322  y=166  width=37   height=83   xoffset=3    yoffset=-1   xadvance=35   page=5    chnl=0 
char id=1184    x=359  y=166  width=43   height=83   xoffset=-1   yoffset=-1   xadvance=41   page=5    chnl=0 
char id=1185    x=402  y=166  width=36   height=83   xoffset=0    yoffset=-1   xadvance=34   page=5    chnl=0 
char id=1186    x=438  y=166  width=48   height=83   xoffset=3    yoffset=-1   xadvance=46   page=5    chnl=0 
char id=1187    x=0    y=249  width=40   height=83   xoffset=3    yoffset=-1   xadvance=38   page=5    chnl=0 
char id=1194    x=40   y=249  width=45   height=83   xoffset=1    yoffset=-1   xadvance=43   page=5    chnl=0 
char id=1195    x=85   y=249  width=34   height=83   xoffset=1    yoffset=-1   xadvance=32   page=5    chnl=0 
char id=1198    x=119  y=249  width=43   height=83   xoffset=-1   yoffset=-1   xadvance=41   page=5    chnl=0 
char id=1199    x=162  y=249  width=36   height=83   xoffset=-1   yoffset=-1   xadvance=34   page=5    chnl=0 
char id=1200    x=198  y=249  width=43   height=83   xoffset=-1   yoffset=-1   xadvance=41   page=5    chnl=0 
char id=1201    x=241  y=249  width=36   height=83   xoffset=-1   yoffset=-1   xadvance=34   page=5    chnl=0 
char id=1202    x=277  y=249  width=45   height=83   xoffset=-1   yoffset=-1   xadvance=43   page=5    chnl=0 
char id=1203    x=322  y=249  width=36   height=83   xoffset=-1   yoffset=-1   xadvance=34   page=5    chnl=0 
char id=1206    x=358  y=249  width=42   height=83   xoffset=1    yoffset=-1   xadvance=40   page=5    chnl=0 
char id=1207    x=400  y=249  width=39   height=83   xoffset=2    yoffset=-1   xadvance=37   page=5    chnl=0 
char id=1210    x=439  y=249  width=41   height=83   xoffset=3    yoffset=-1   xadvance=39   page=5    chnl=0 
char id=1211    x=0    y=332  width=39   height=83   xoffset=3    yoffset=-1   xadvance=37   page=5    chnl=0 
char id=1216    x=490  y=83   width=19   height=83   xoffset=3    yoffset=-1   xadvance=17   page=5    chnl=0 
char id=1217    x=39   y=332  width=61   height=83   xoffset=-1   yoffset=-1   xadvance=59   page=5    chnl=0 
char id=1218    x=100  y=332  width=48   height=83   xoffset=-1   yoffset=-1   xadvance=46   page=5    chnl=0 
char id=1231    x=486  y=166  width=19   height=83   xoffset=3    yoffset=-1   xadvance=17   page=5    chnl=0 
char id=1232    x=148  y=332  width=44   height=83   xoffset=-1   yoffset=-1   xadvance=42   page=5    chnl=0 
char id=1233    x=192  y=332  width=35   height=83   xoffset=0    yoffset=-1   xadvance=33   page=5    chnl=0 
char id=1234    x=227  y=332  width=44   height=83   xoffset=-1   yoffset=-1   xadvance=42   page=5    chnl=0 
char id=1235    x=271  y=332  width=35   height=83   xoffset=0    yoffset=-1   xadvance=33   page=5    chnl=0 
char id=1236    x=306  y=332  width=61   height=83   xoffset=-1   yoffset=-1   xadvance=59   page=5    chnl=0 
char id=1237    x=367  y=332  width=54   height=83   xoffset=0    yoffset=-1   xadvance=52   page=5    chnl=0 
char id=1238    x=421  y=332  width=38   height=83   xoffset=3    yoffset=-1   xadvance=36   page=5    chnl=0 
char id=1239    x=459  y=332  width=36   height=83   xoffset=1    yoffset=-1   xadvance=34   page=5    chnl=0 
char id=1240    x=0    y=415  width=51   height=83   xoffset=1    yoffset=-1   xadvance=49   page=5    chnl=0 
char id=1241    x=51   y=415  width=36   height=83   xoffset=1    yoffset=-1   xadvance=34   page=5    chnl=0 
char id=1242    x=87   y=415  width=51   height=83   xoffset=1    yoffset=-1   xadvance=49   page=5    chnl=0 
char id=1243    x=138  y=415  width=36   height=83   xoffset=1    yoffset=-1   xadvance=34   page=5    chnl=0 
char id=1244    x=174  y=415  width=61   height=83   xoffset=-1   yoffset=-1   xadvance=59   page=5    chnl=0 
char id=1245    x=235  y=415  width=48   height=83   xoffset=-1   yoffset=-1   xadvance=46   page=5    chnl=0 
char id=1246    x=283  y=415  width=39   height=83   xoffset=-1   yoffset=-1   xadvance=37   page=5    chnl=0 
char id=1247    x=322  y=415  width=32   height=83   xoffset=0    yoffset=-1   xadvance=30   page=5    chnl=0 
char id=1250    x=354  y=415  width=50   height=83   xoffset=3    yoffset=-1   xadvance=48   page=5    chnl=0 
char id=1251    x=404  y=415  width=39   height=83   xoffset=3    yoffset=-1   xadvance=37   page=5    chnl=0 
char id=1252    x=443  y=415  width=50   height=83   xoffset=3    yoffset=-1   xadvance=48   page=5    chnl=0 
char id=1253    x=0    y=498  width=39   height=83   xoffset=3    yoffset=-1   xadvance=37   page=5    chnl=0 
char id=8220    x=480  y=249  width=25   height=83   xoffset=0    yoffset=-1   xadvance=23   page=5    chnl=0 
char id=1254    x=0    y=0    width=51   height=83   xoffset=1    yoffset=-1   xadvance=49   page=6    chnl=0 
char id=1255    x=51   y=0    width=39   height=83   xoffset=1    yoffset=-1   xadvance=37   page=6    chnl=0 
char id=1256    x=90   y=0    width=51   height=83   xoffset=1    yoffset=-1   xadvance=49   page=6    chnl=0 
char id=1257    x=141  y=0    width=39   height=83   xoffset=1    yoffset=-1   xadvance=37   page=6    chnl=0 
char id=1258    x=180  y=0    width=51   height=83   xoffset=1    yoffset=-1   xadvance=49   page=6    chnl=0 
char id=1259    x=231  y=0    width=39   height=83   xoffset=1    yoffset=-1   xadvance=37   page=6    chnl=0 
char id=1260    x=270  y=0    width=45   height=83   xoffset=1    yoffset=-1   xadvance=43   page=6    chnl=0 
char id=1261    x=315  y=0    width=35   height=83   xoffset=1    yoffset=-1   xadvance=33   page=6    chnl=0 
char id=1262    x=350  y=0    width=43   height=83   xoffset=-1   yoffset=-1   xadvance=41   page=6    chnl=0 
char id=1263    x=393  y=0    width=37   height=83   xoffset=-1   yoffset=-1   xadvance=35   page=6    chnl=0 
char id=1264    x=430  y=0    width=43   height=83   xoffset=-1   yoffset=-1   xadvance=41   page=6    chnl=0 
char id=1265    x=473  y=0    width=37   height=83   xoffset=-1   yoffset=-1   xadvance=35   page=6    chnl=0 
char id=1266    x=0    y=83   width=43   height=83   xoffset=-1   yoffset=-1   xadvance=41   page=6    chnl=0 
char id=1267    x=43   y=83   width=37   height=83   xoffset=-1   yoffset=-1   xadvance=35   page=6    chnl=0 
char id=1268    x=80   y=83   width=42   height=83   xoffset=1    yoffset=-1   xadvance=40   page=6    chnl=0 
char id=1269    x=122  y=83   width=39   height=83   xoffset=2    yoffset=-1   xadvance=37   page=6    chnl=0 
char id=1272    x=161  y=83   width=54   height=83   xoffset=3    yoffset=-1   xadvance=52   page=6    chnl=0 
char id=1273    x=215  y=83   width=46   height=83   xoffset=3    yoffset=-1   xadvance=44   page=6    chnl=0 
char id=8210    x=261  y=83   width=43   height=83   xoffset=2    yoffset=-1   xadvance=41   page=6    chnl=0 
char id=8211    x=304  y=83   width=34   height=83   xoffset=2    yoffset=-1   xadvance=32   page=6    chnl=0 
char id=8212    x=338  y=83   width=66   height=83   xoffset=2    yoffset=-1   xadvance=64   page=6    chnl=0 
char id=8213    x=338  y=83   width=66   height=83   xoffset=2    yoffset=-1   xadvance=64   page=6    chnl=0 
char id=8221    x=404  y=83   width=25   height=83   xoffset=0    yoffset=-1   xadvance=23   page=6    chnl=0 
char id=8222    x=429  y=83   width=25   height=83   xoffset=0    yoffset=-1   xadvance=23   page=6    chnl=0 
char id=8224    x=454  y=83   width=31   height=83   xoffset=2    yoffset=-1   xadvance=29   page=6    chnl=0 
char id=8225    x=0    y=166  width=31   height=83   xoffset=2    yoffset=-1   xadvance=29   page=6    chnl=0 
char id=8226    x=31   y=166  width=46   height=83   xoffset=10   yoffset=-1   xadvance=44   page=6    chnl=0 
char id=8230    x=77   y=166  width=46   height=83   xoffset=2    yoffset=-1   xadvance=44   page=6    chnl=0 
char id=8240    x=123  y=166  width=75   height=83   xoffset=-1   yoffset=-1   xadvance=73   page=6    chnl=0 
char id=8243    x=485  y=83   width=23   height=83   xoffset=-1   yoffset=-1   xadvance=21   page=6    chnl=0 
char id=8244    x=198  y=166  width=34   height=83   xoffset=-1   yoffset=-1   xadvance=32   page=6    chnl=0 
char id=8249    x=232  y=166  width=25   height=83   xoffset=1    yoffset=-1   xadvance=23   page=6    chnl=0 
char id=8250    x=257  y=166  width=25   height=83   xoffset=1    yoffset=-1   xadvance=23   page=6    chnl=0 
char id=8252    x=282  y=166  width=31   height=83   xoffset=1    yoffset=-1   xadvance=29   page=6    chnl=0 
char id=8260    x=313  y=166  width=36   height=83   xoffset=-3   yoffset=-1   xadvance=32   page=6    chnl=0 
char id=8364    x=349  y=166  width=44   height=83   xoffset=0    yoffset=-1   xadvance=42   page=6    chnl=0 
char id=8377    x=393  y=166  width=37   height=83   xoffset=2    yoffset=-1   xadvance=35   page=6    chnl=0 
kernings count=0
